{
    "A0": {
        "reassignable": false,
        "occupant": "Takakura"
    },
    "A1": {
        "reassignable": false,
        "occupant": "None"
    },
    "A2": {
        "reassignable": false,
        "occupant": "None"
    },
    "A3": {
        "reassignable": false,
        "occupant": "None"
    },
    "B0": {
        "reassignable": false,
        "occupant": "Kusunoki"
    },
    "B1": {
        "reassignable": false,
        "occupant": "Yokoyama"
    },
    "B2": {
        "reassignable": false,
        "occupant": "Komatsu"
    },
    "B3": {
        "reassignable": false,
        "occupant": "Yoshie"
    },
    "B4": {
        "reassignable": true,
        "occupant": "None"
    },
    "C0": {
        "reassignable": true,
        "occupant": "Kimura"
    },
    "C1": {
        "reassignable": true,
        "occupant": "Tiago"
    },
    "C2": {
        "reassignable": false,
        "occupant": "Yoneshima"
    },
    "C3": {
        "reassignable": false,
        "occupant": "Inagaki"
    },
    "C4": {
        "reassignable": true,
        "occupant": "Abe"
    },
    "D0": {
        "reassignable": false,
        "occupant": "Sugiyama"
    },
    "D1": {
        "reassignable": true,
        "occupant": "Izawa"
    },
    "D2": {
        "reassignable": true,
        "occupant": "None"
    },
    "D3": {
        "reassignable": true,
        "occupant": "Nakatani"
    },
    "D4": {
        "reassignable": true,
        "occupant": "Ichiki"
    },
    "E0": {
        "reassignable": false,
        "occupant": "Aaron"
    },
    "E1": {
        "reassignable": true,
        "occupant": "None"
    },
    "E2": {
        "reassignable": true,
        "occupant": "None"
    },
    "E3": {
        "reassignable": true,
        "occupant": "Filip"
    },
    "F0": {
        "reassignable": true,
        "occupant": "Motoi"
    },
    "F1": {
        "reassignable": true,
        "occupant": "None"
    },
    "F2": {
        "reassignable": true,
        "occupant": "Nakano"
    },
    "F3": {
        "reassignable": true,
        "occupant": "Aurelie"
    },
    "F4": {
        "reassignable": true,
        "occupant": "Morgan"
    },
    "G0": {
        "reassignable": true,
        "occupant": "Motaz"
    },
    "G1": {
        "reassignable": true,
        "occupant": "Hanqin"
    },
    "G2": {
        "reassignable": true,
        "occupant": "None"
    },
    "G3": {
        "reassignable": true,
        "occupant": "Yassine"
    },
    "G4": {
        "reassignable": true,
        "occupant": "Ide"
    },
    "H0": {
        "reassignable": false,
        "occupant": "Nakai"
    },
    "H1": {
        "reassignable": false,
        "occupant": "Tanikawa"
    },
    "H2": {
        "reassignable": false,
        "occupant": "None"
    },
    "H3": {
        "reassignable": false,
        "occupant": "Oosawa"
    },
    "H4": {
        "reassignable": false,
        "occupant": "Tomura"
    }
}